same
same
same
same
same
same
same
same
same
same
same
same
same
same
same
same
same
same
same
same
same
same
same
same
same
same
same
same
same
same
same
same
same
same
different
same
same
different
different
different
same
different
same
different
same
same
different
different
different
same
different
different
same
same
different
different
same
different
same
same
same
different
different
same
same
